{
	"FileName":"",
	"Title":"",
	"SubTitle":"",
	"PageImage":"",
	"ArticleDate":"",
	"Indicator":"",
	"PageContent":"",
	"Impact":"",
	"Notification":"n",
	"OneViewEx":"",
	"ExcelUpload":"",
	"Comments":"",
	"ContactName":"",
	"ContactEmail":"",
	"HidePhiSearch":"",
	"Byline":"",
	"ImageCaption":"",
	"BrowserTitle":"",
	"MetaDescription":"",
	"MetaKeyword":"",
	"HideIntSearch":""
}